%!PS-Adobe-2.0
%%Title: HLola boustrophedon +RTS -N -hc -i0.1
%%Creator: hp2ps (version 0.25)
%%CreationDate: Fri Sep  2 00:53 2022
%%EndComments
-90 rotate
-756.000000 72.000000 translate
/HE10 /Helvetica findfont 10 scalefont def
/HE12 /Helvetica findfont 12 scalefont def
newpath
0 0 moveto
0 432.000000 rlineto
648.000000 0 rlineto
0 -432.000000 rlineto
closepath
0.500000 setlinewidth
stroke
newpath
5.000000 407.000000 moveto
0 20.000000 rlineto
638.000000 0 rlineto
0 -20.000000 rlineto
closepath
0.500000 setlinewidth
stroke
HE12 setfont
11.000000 413.000000 moveto
(HLola boustrophedon +RTS -N -hc -i0) show
HE12 setfont
(3,913,228 bytes x seconds)
dup stringwidth pop
2 div
319.000000
exch sub
413.000000 moveto
show
HE12 setfont
(Fri Sep  2 00:53 2022)
dup stringwidth pop
637.000000
exch sub
413.000000 moveto
show
45.000000 20.000000 moveto
521.480310 0 rlineto
0.500000 setlinewidth
stroke
HE10 setfont
(seconds)
dup stringwidth pop
566.480310
exch sub
5.000000 moveto
show
45.000000 20.000000 moveto
0 -4 rlineto
stroke
HE10 setfont
(0.0)
dup stringwidth pop
2 div
45.000000 exch sub
5.000000 moveto
show
149.186947 20.000000 moveto
0 -4 rlineto
stroke
HE10 setfont
(2.0)
dup stringwidth pop
2 div
149.186947 exch sub
5.000000 moveto
show
253.373894 20.000000 moveto
0 -4 rlineto
stroke
HE10 setfont
(4.0)
dup stringwidth pop
2 div
253.373894 exch sub
5.000000 moveto
show
357.560841 20.000000 moveto
0 -4 rlineto
stroke
HE10 setfont
(6.0)
dup stringwidth pop
2 div
357.560841 exch sub
5.000000 moveto
show
461.747788 20.000000 moveto
0 -4 rlineto
stroke
HE10 setfont
(8.0)
dup stringwidth pop
2 div
461.747788 exch sub
5.000000 moveto
show
45.000000 20.000000 moveto
0 382.000000 rlineto
0.500000 setlinewidth
stroke
gsave
HE10 setfont
(bytes)
dup stringwidth pop
402.000000
exch sub
40.000000 exch
translate
90 rotate
0 0 moveto
show
grestore
45.000000 20.000000 moveto
-4 0 rlineto
stroke
HE10 setfont
(0k)
dup stringwidth
2 div
20.000000 exch sub
exch
40.000000 exch sub
exch
moveto
show
45.000000 65.774378 moveto
-4 0 rlineto
stroke
HE10 setfont
(50k)
dup stringwidth
2 div
65.774378 exch sub
exch
40.000000 exch sub
exch
moveto
show
45.000000 111.548756 moveto
-4 0 rlineto
stroke
HE10 setfont
(100k)
dup stringwidth
2 div
111.548756 exch sub
exch
40.000000 exch sub
exch
moveto
show
45.000000 157.323134 moveto
-4 0 rlineto
stroke
HE10 setfont
(150k)
dup stringwidth
2 div
157.323134 exch sub
exch
40.000000 exch sub
exch
moveto
show
45.000000 203.097511 moveto
-4 0 rlineto
stroke
HE10 setfont
(200k)
dup stringwidth
2 div
203.097511 exch sub
exch
40.000000 exch sub
exch
moveto
show
45.000000 248.871889 moveto
-4 0 rlineto
stroke
HE10 setfont
(250k)
dup stringwidth
2 div
248.871889 exch sub
exch
40.000000 exch sub
exch
moveto
show
45.000000 294.646267 moveto
-4 0 rlineto
stroke
HE10 setfont
(300k)
dup stringwidth
2 div
294.646267 exch sub
exch
40.000000 exch sub
exch
moveto
show
45.000000 340.420645 moveto
-4 0 rlineto
stroke
HE10 setfont
(350k)
dup stringwidth
2 div
340.420645 exch sub
exch
40.000000 exch sub
exch
moveto
show
571.480310 204.000000 moveto
0 14 rlineto
14 0 rlineto
0 -14 rlineto
closepath
gsave
0.000000 0.000000 0.000000 setrgbcolor
fill
grestore
stroke
HE10 setfont
590.480310 206.000000 moveto
(OTHER) show
45.000000 20.000000 moveto
45.000000 20.000000 lineto
51.184589 20.000000 lineto
59.037889 20.000000 lineto
67.561371 20.000000 lineto
75.654509 20.000000 lineto
84.349951 20.000000 lineto
92.493620 20.000000 lineto
100.807009 20.000000 lineto
109.554649 20.000000 lineto
117.794274 20.000000 lineto
125.979773 20.000000 lineto
133.906160 20.000000 lineto
142.579932 20.000000 lineto
150.953280 20.000000 lineto
159.096897 20.000000 lineto
168.302491 20.000000 lineto
176.065408 20.000000 lineto
185.330753 20.000000 lineto
193.841420 20.000000 lineto
202.118969 20.000000 lineto
210.363178 20.000000 lineto
218.791642 20.000000 lineto
227.295537 20.000000 lineto
235.537193 20.000000 lineto
244.073282 20.000000 lineto
251.688305 20.000000 lineto
259.318749 20.000000 lineto
267.991739 20.000000 lineto
276.250274 20.000000 lineto
284.206198 20.000000 lineto
292.211141 20.000000 lineto
299.631492 20.000000 lineto
307.867105 20.000000 lineto
315.912578 20.000000 lineto
323.508379 20.000000 lineto
331.439402 20.000000 lineto
339.693040 20.000000 lineto
348.248351 20.000000 lineto
356.543143 20.000000 lineto
364.781882 20.000000 lineto
372.839075 20.000000 lineto
381.362193 20.000000 lineto
389.575510 20.000000 lineto
398.274131 20.000000 lineto
406.877680 20.000000 lineto
415.217324 20.000000 lineto
423.963871 20.000000 lineto
432.218446 20.000000 lineto
440.416709 20.000000 lineto
448.352889 20.000000 lineto
456.636741 20.000000 lineto
465.673813 20.000000 lineto
474.368891 20.000000 lineto
482.963689 20.000000 lineto
491.168254 20.000000 lineto
499.075940 20.000000 lineto
507.568686 20.000000 lineto
515.592436 20.000000 lineto
525.113560 20.000000 lineto
533.175546 20.000000 lineto
541.832023 20.000000 lineto
550.133534 20.000000 lineto
558.127851 20.000000 lineto
566.480310 20.000000 lineto
566.480310 381.200123 lineto
566.480310 381.200123 lineto
558.127851 372.169753 lineto
550.133534 383.975881 lineto
541.832023 390.157253 lineto
533.175546 389.959508 lineto
525.113560 370.792860 lineto
515.592436 367.921891 lineto
507.568686 372.550596 lineto
499.075940 381.353925 lineto
491.168254 388.392193 lineto
482.963689 369.621036 lineto
474.368891 369.804134 lineto
465.673813 387.711070 lineto
456.636741 367.321331 lineto
448.352889 390.977530 lineto
440.416709 368.793435 lineto
432.218446 389.168526 lineto
423.963871 367.694850 lineto
415.217324 389.542045 lineto
406.877680 381.200123 lineto
398.274131 370.946662 lineto
389.575510 389.410215 lineto
381.362193 368.639633 lineto
372.839075 381.222094 lineto
364.781882 385.828828 lineto
356.543143 388.040646 lineto
348.248351 372.242992 lineto
339.693040 369.203574 lineto
331.439402 369.210898 lineto
323.508379 370.939338 lineto
315.912578 389.073316 lineto
307.867105 388.267687 lineto
299.631492 370.353426 lineto
292.211141 382.899268 lineto
284.206198 389.893593 lineto
276.250274 370.119061 lineto
267.991739 385.784884 lineto
259.318749 382.533073 lineto
251.688305 372.221021 lineto
244.073282 388.846275 lineto
235.537193 387.835577 lineto
227.295537 382.130258 lineto
218.791642 382.276736 lineto
210.363178 387.725718 lineto
202.118969 368.683577 lineto
193.841420 389.534721 lineto
185.330753 367.387246 lineto
176.065408 389.022048 lineto
168.302491 370.265539 lineto
159.096897 388.985429 lineto
150.953280 372.228345 lineto
142.579932 384.290809 lineto
133.906160 381.383220 lineto
125.979773 368.332030 lineto
117.794274 389.022048 lineto
109.554649 382.598988 lineto
100.807009 402.000000 lineto
92.493620 384.598413 lineto
84.349951 370.697649 lineto
75.654509 385.616435 lineto
67.561371 383.338702 lineto
59.037889 371.415392 lineto
51.184589 387.755014 lineto
45.000000 20.000000 lineto
closepath
gsave
0.000000 0.000000 0.000000 setrgbcolor
fill
grestore
stroke
showpage
