%!PS-Adobe-2.0
%%Title: HLola patrolgive mon1 +RTS -N -hc -i0.1
%%Creator: hp2ps (version 0.25)
%%CreationDate: Fri Sep  2 00:52 2022
%%EndComments
-90 rotate
-756.000000 72.000000 translate
/HE10 /Helvetica findfont 10 scalefont def
/HE12 /Helvetica findfont 12 scalefont def
newpath
0 0 moveto
0 432.000000 rlineto
648.000000 0 rlineto
0 -432.000000 rlineto
closepath
0.500000 setlinewidth
stroke
newpath
5.000000 407.000000 moveto
0 20.000000 rlineto
638.000000 0 rlineto
0 -20.000000 rlineto
closepath
0.500000 setlinewidth
stroke
HE12 setfont
11.000000 413.000000 moveto
(HLola patrolgive mon1 +RTS -N -hc -) show
HE12 setfont
(2,412,156 bytes x seconds)
dup stringwidth pop
2 div
319.000000
exch sub
413.000000 moveto
show
HE12 setfont
(Fri Sep  2 00:52 2022)
dup stringwidth pop
637.000000
exch sub
413.000000 moveto
show
45.000000 20.000000 moveto
521.480310 0 rlineto
0.500000 setlinewidth
stroke
HE10 setfont
(seconds)
dup stringwidth pop
566.480310
exch sub
5.000000 moveto
show
45.000000 20.000000 moveto
0 -4 rlineto
stroke
HE10 setfont
(0.0)
dup stringwidth pop
2 div
45.000000 exch sub
5.000000 moveto
show
149.941832 20.000000 moveto
0 -4 rlineto
stroke
HE10 setfont
(2.0)
dup stringwidth pop
2 div
149.941832 exch sub
5.000000 moveto
show
254.883664 20.000000 moveto
0 -4 rlineto
stroke
HE10 setfont
(4.0)
dup stringwidth pop
2 div
254.883664 exch sub
5.000000 moveto
show
359.825496 20.000000 moveto
0 -4 rlineto
stroke
HE10 setfont
(6.0)
dup stringwidth pop
2 div
359.825496 exch sub
5.000000 moveto
show
464.767328 20.000000 moveto
0 -4 rlineto
stroke
HE10 setfont
(8.0)
dup stringwidth pop
2 div
464.767328 exch sub
5.000000 moveto
show
45.000000 20.000000 moveto
0 382.000000 rlineto
0.500000 setlinewidth
stroke
gsave
HE10 setfont
(bytes)
dup stringwidth pop
402.000000
exch sub
40.000000 exch
translate
90 rotate
0 0 moveto
show
grestore
45.000000 20.000000 moveto
-4 0 rlineto
stroke
HE10 setfont
(0k)
dup stringwidth
2 div
20.000000 exch sub
exch
40.000000 exch sub
exch
moveto
show
45.000000 50.546315 moveto
-4 0 rlineto
stroke
HE10 setfont
(20k)
dup stringwidth
2 div
50.546315 exch sub
exch
40.000000 exch sub
exch
moveto
show
45.000000 81.092631 moveto
-4 0 rlineto
stroke
HE10 setfont
(40k)
dup stringwidth
2 div
81.092631 exch sub
exch
40.000000 exch sub
exch
moveto
show
45.000000 111.638946 moveto
-4 0 rlineto
stroke
HE10 setfont
(60k)
dup stringwidth
2 div
111.638946 exch sub
exch
40.000000 exch sub
exch
moveto
show
45.000000 142.185261 moveto
-4 0 rlineto
stroke
HE10 setfont
(80k)
dup stringwidth
2 div
142.185261 exch sub
exch
40.000000 exch sub
exch
moveto
show
45.000000 172.731576 moveto
-4 0 rlineto
stroke
HE10 setfont
(100k)
dup stringwidth
2 div
172.731576 exch sub
exch
40.000000 exch sub
exch
moveto
show
45.000000 203.277892 moveto
-4 0 rlineto
stroke
HE10 setfont
(120k)
dup stringwidth
2 div
203.277892 exch sub
exch
40.000000 exch sub
exch
moveto
show
45.000000 233.824207 moveto
-4 0 rlineto
stroke
HE10 setfont
(140k)
dup stringwidth
2 div
233.824207 exch sub
exch
40.000000 exch sub
exch
moveto
show
45.000000 264.370522 moveto
-4 0 rlineto
stroke
HE10 setfont
(160k)
dup stringwidth
2 div
264.370522 exch sub
exch
40.000000 exch sub
exch
moveto
show
45.000000 294.916837 moveto
-4 0 rlineto
stroke
HE10 setfont
(180k)
dup stringwidth
2 div
294.916837 exch sub
exch
40.000000 exch sub
exch
moveto
show
45.000000 325.463153 moveto
-4 0 rlineto
stroke
HE10 setfont
(200k)
dup stringwidth
2 div
325.463153 exch sub
exch
40.000000 exch sub
exch
moveto
show
45.000000 356.009468 moveto
-4 0 rlineto
stroke
HE10 setfont
(220k)
dup stringwidth
2 div
356.009468 exch sub
exch
40.000000 exch sub
exch
moveto
show
571.480310 204.000000 moveto
0 14 rlineto
14 0 rlineto
0 -14 rlineto
closepath
gsave
0.000000 0.000000 0.000000 setrgbcolor
fill
grestore
stroke
HE10 setfont
590.480310 206.000000 moveto
(OTHER) show
45.000000 20.000000 moveto
45.000000 20.000000 lineto
51.091926 20.000000 lineto
59.894762 20.000000 lineto
68.159141 20.000000 lineto
76.937997 20.000000 lineto
84.801708 20.000000 lineto
93.377398 20.000000 lineto
101.836968 20.000000 lineto
110.433436 20.000000 lineto
118.691676 20.000000 lineto
127.100508 20.000000 lineto
135.705476 20.000000 lineto
144.085448 20.000000 lineto
152.159725 20.000000 lineto
160.433707 20.000000 lineto
168.247203 20.000000 lineto
176.066681 20.000000 lineto
183.987114 20.000000 lineto
192.224418 20.000000 lineto
199.389531 20.000000 lineto
206.951482 20.000000 lineto
214.709045 20.000000 lineto
222.446721 20.000000 lineto
230.019271 20.000000 lineto
237.480845 20.000000 lineto
245.378610 20.000000 lineto
252.889192 20.000000 lineto
261.106557 20.000000 lineto
269.487632 20.000000 lineto
277.998939 20.000000 lineto
286.857761 20.000000 lineto
295.215014 20.000000 lineto
303.918732 20.000000 lineto
312.169102 20.000000 lineto
320.130776 20.000000 lineto
328.336283 20.000000 lineto
336.170663 20.000000 lineto
344.654003 20.000000 lineto
353.010154 20.000000 lineto
361.193256 20.000000 lineto
369.200055 20.000000 lineto
377.222648 20.000000 lineto
384.923857 20.000000 lineto
393.128419 20.000000 lineto
401.306274 20.000000 lineto
409.196326 20.000000 lineto
417.744205 20.000000 lineto
426.035397 20.000000 lineto
434.087846 20.000000 lineto
442.113535 20.000000 lineto
450.095516 20.000000 lineto
458.758989 20.000000 lineto
467.814262 20.000000 lineto
475.306531 20.000000 lineto
483.344971 20.000000 lineto
491.482580 20.000000 lineto
499.694541 20.000000 lineto
508.066171 20.000000 lineto
516.480354 20.000000 lineto
525.493284 20.000000 lineto
533.658965 20.000000 lineto
542.145296 20.000000 lineto
549.881398 20.000000 lineto
557.790654 20.000000 lineto
566.480310 20.000000 lineto
566.480310 400.228314 lineto
566.480310 400.228314 lineto
557.790654 401.389074 lineto
549.881398 396.306167 lineto
542.145296 381.045228 lineto
533.658965 397.100371 lineto
525.493284 400.692618 lineto
516.480354 401.718974 lineto
508.066171 388.412999 lineto
499.694541 389.182766 lineto
491.482580 381.619498 lineto
483.344971 380.544268 lineto
475.306531 381.790558 lineto
467.814262 381.717247 lineto
458.758989 397.014841 lineto
450.095516 383.073503 lineto
442.113535 400.765929 lineto
434.087846 400.203877 lineto
426.035397 398.578813 lineto
417.744205 380.568705 lineto
409.196326 399.886195 lineto
401.306274 382.572544 lineto
393.128419 381.521750 lineto
384.923857 380.593142 lineto
377.222648 400.765929 lineto
369.200055 400.973644 lineto
361.193256 398.615468 lineto
353.010154 399.715136 lineto
344.654003 397.943449 lineto
336.170663 399.531858 lineto
328.336283 380.861950 lineto
320.130776 400.961425 lineto
312.169102 400.350499 lineto
303.918732 397.027060 lineto
295.215014 397.992323 lineto
286.857761 400.741492 lineto
277.998939 398.114509 lineto
269.487632 398.041198 lineto
261.106557 380.654235 lineto
252.889192 398.187820 lineto
245.378610 386.433598 lineto
237.480845 380.568705 lineto
230.019271 379.884468 lineto
222.446721 399.849539 lineto
214.709045 398.114509 lineto
206.951482 399.397454 lineto
199.389531 381.521750 lineto
192.224418 398.016760 lineto
183.987114 381.045228 lineto
176.066681 400.020599 lineto
168.247203 399.715136 lineto
160.433707 397.637986 lineto
152.159725 398.603250 lineto
144.085448 383.488933 lineto
135.705476 397.552456 lineto
127.100508 399.434110 lineto
118.691676 398.090072 lineto
110.433436 380.629798 lineto
101.836968 382.914662 lineto
93.377398 380.043309 lineto
84.801708 402.000000 lineto
76.937997 397.027060 lineto
68.159141 397.320305 lineto
59.894762 400.521558 lineto
51.091926 386.433598 lineto
45.000000 20.000000 lineto
closepath
gsave
0.000000 0.000000 0.000000 setrgbcolor
fill
grestore
stroke
showpage
