%!PS-Adobe-2.0
%%Title: HLola tree DFS +RTS -N -hc -i0.1
%%Creator: hp2ps (version 0.25)
%%CreationDate: Fri Sep  2 00:53 2022
%%EndComments
-90 rotate
-756.000000 72.000000 translate
/HE10 /Helvetica findfont 10 scalefont def
/HE12 /Helvetica findfont 12 scalefont def
newpath
0 0 moveto
0 432.000000 rlineto
648.000000 0 rlineto
0 -432.000000 rlineto
closepath
0.500000 setlinewidth
stroke
newpath
5.000000 407.000000 moveto
0 20.000000 rlineto
638.000000 0 rlineto
0 -20.000000 rlineto
closepath
0.500000 setlinewidth
stroke
HE12 setfont
11.000000 413.000000 moveto
(HLola tree DFS +RTS -N -hc -i0.1) show
HE12 setfont
(7,203,570 bytes x seconds)
dup stringwidth pop
2 div
319.000000
exch sub
413.000000 moveto
show
HE12 setfont
(Fri Sep  2 00:53 2022)
dup stringwidth pop
637.000000
exch sub
413.000000 moveto
show
45.000000 20.000000 moveto
521.480310 0 rlineto
0.500000 setlinewidth
stroke
HE10 setfont
(seconds)
dup stringwidth pop
566.480310
exch sub
5.000000 moveto
show
45.000000 20.000000 moveto
0 -4 rlineto
stroke
HE10 setfont
(0.0)
dup stringwidth pop
2 div
45.000000 exch sub
5.000000 moveto
show
178.197834 20.000000 moveto
0 -4 rlineto
stroke
HE10 setfont
(2.0)
dup stringwidth pop
2 div
178.197834 exch sub
5.000000 moveto
show
311.395668 20.000000 moveto
0 -4 rlineto
stroke
HE10 setfont
(4.0)
dup stringwidth pop
2 div
311.395668 exch sub
5.000000 moveto
show
444.593503 20.000000 moveto
0 -4 rlineto
stroke
HE10 setfont
(6.0)
dup stringwidth pop
2 div
444.593503 exch sub
5.000000 moveto
show
45.000000 20.000000 moveto
0 382.000000 rlineto
0.500000 setlinewidth
stroke
gsave
HE10 setfont
(bytes)
dup stringwidth pop
402.000000
exch sub
40.000000 exch
translate
90 rotate
0 0 moveto
show
grestore
45.000000 20.000000 moveto
-4 0 rlineto
stroke
HE10 setfont
(0k)
dup stringwidth
2 div
20.000000 exch sub
exch
40.000000 exch sub
exch
moveto
show
45.000000 76.373779 moveto
-4 0 rlineto
stroke
HE10 setfont
(200k)
dup stringwidth
2 div
76.373779 exch sub
exch
40.000000 exch sub
exch
moveto
show
45.000000 132.747558 moveto
-4 0 rlineto
stroke
HE10 setfont
(400k)
dup stringwidth
2 div
132.747558 exch sub
exch
40.000000 exch sub
exch
moveto
show
45.000000 189.121336 moveto
-4 0 rlineto
stroke
HE10 setfont
(600k)
dup stringwidth
2 div
189.121336 exch sub
exch
40.000000 exch sub
exch
moveto
show
45.000000 245.495115 moveto
-4 0 rlineto
stroke
HE10 setfont
(800k)
dup stringwidth
2 div
245.495115 exch sub
exch
40.000000 exch sub
exch
moveto
show
45.000000 301.868894 moveto
-4 0 rlineto
stroke
HE10 setfont
(1,000k)
dup stringwidth
2 div
301.868894 exch sub
exch
40.000000 exch sub
exch
moveto
show
45.000000 358.242673 moveto
-4 0 rlineto
stroke
HE10 setfont
(1,200k)
dup stringwidth
2 div
358.242673 exch sub
exch
40.000000 exch sub
exch
moveto
show
571.480310 204.000000 moveto
0 14 rlineto
14 0 rlineto
0 -14 rlineto
closepath
gsave
0.000000 0.000000 0.000000 setrgbcolor
fill
grestore
stroke
HE10 setfont
590.480310 206.000000 moveto
(OTHER) show
45.000000 20.000000 moveto
45.000000 20.000000 lineto
53.529656 20.000000 lineto
64.260074 20.000000 lineto
74.165131 20.000000 lineto
83.891503 20.000000 lineto
94.660748 20.000000 lineto
104.839127 20.000000 lineto
117.630448 20.000000 lineto
128.841843 20.000000 lineto
139.194445 20.000000 lineto
150.639535 20.000000 lineto
161.807641 20.000000 lineto
172.240494 20.000000 lineto
182.693794 20.000000 lineto
193.807155 20.000000 lineto
203.761895 20.000000 lineto
213.966115 20.000000 lineto
224.129243 20.000000 lineto
235.071711 20.000000 lineto
246.045215 20.000000 lineto
256.607203 20.000000 lineto
267.390168 20.000000 lineto
278.322846 20.000000 lineto
288.182216 20.000000 lineto
298.669548 20.000000 lineto
310.244639 20.000000 lineto
320.817151 20.000000 lineto
331.175347 20.000000 lineto
342.123543 20.000000 lineto
351.913717 20.000000 lineto
362.560353 20.000000 lineto
373.909275 20.000000 lineto
385.412906 20.000000 lineto
396.028307 20.000000 lineto
406.103125 20.000000 lineto
416.795115 20.000000 lineto
426.897638 20.000000 lineto
437.483069 20.000000 lineto
448.538490 20.000000 lineto
459.904660 20.000000 lineto
471.833792 20.000000 lineto
482.208971 20.000000 lineto
491.872540 20.000000 lineto
503.163721 20.000000 lineto
513.786647 20.000000 lineto
524.316003 20.000000 lineto
534.570038 20.000000 lineto
544.862701 20.000000 lineto
555.574671 20.000000 lineto
566.480310 20.000000 lineto
566.480310 402.000000 lineto
566.480310 402.000000 lineto
555.574671 371.274036 lineto
544.862701 374.045371 lineto
534.570038 365.618618 lineto
524.316003 365.864408 lineto
513.786647 344.740025 lineto
503.163721 355.394670 lineto
491.872540 349.962492 lineto
482.208971 344.895617 lineto
471.833792 344.056775 lineto
459.904660 336.464355 lineto
448.538490 354.037189 lineto
437.483069 349.518267 lineto
426.897638 325.225678 lineto
416.795115 322.488167 lineto
406.103125 318.731419 lineto
396.028307 309.190720 lineto
385.412906 318.735929 lineto
373.909275 281.430017 lineto
362.560353 300.468569 lineto
351.913717 312.045489 lineto
342.123543 295.370125 lineto
331.175347 286.093256 lineto
320.817151 281.966695 lineto
310.244639 273.021304 lineto
298.669548 283.360255 lineto
288.182216 251.709761 lineto
278.322846 247.418589 lineto
267.390168 284.302825 lineto
256.607203 256.460943 lineto
246.045215 273.594062 lineto
235.071711 257.953720 lineto
224.129243 241.176884 lineto
213.966115 242.870352 lineto
203.761895 219.599256 lineto
193.807155 240.425985 lineto
182.693794 224.720250 lineto
172.240494 225.617721 lineto
161.807641 197.911136 lineto
150.639535 236.152853 lineto
139.194445 209.878162 lineto
128.841843 226.668528 lineto
117.630448 218.963360 lineto
104.839127 196.134235 lineto
94.660748 198.903315 lineto
83.891503 212.651752 lineto
74.165131 209.959340 lineto
64.260074 204.022054 lineto
53.529656 199.275381 lineto
45.000000 20.000000 lineto
closepath
gsave
0.000000 0.000000 0.000000 setrgbcolor
fill
grestore
stroke
showpage
