%!PS-Adobe-2.0
%%Title: HLolaStrict discretecover 5 lrta +RTS -N -hc -i0.1
%%Creator: hp2ps (version 0.25)
%%CreationDate: Fri Sep  2 00:53 2022
%%EndComments
-90 rotate
-756.000000 72.000000 translate
/HE10 /Helvetica findfont 10 scalefont def
/HE12 /Helvetica findfont 12 scalefont def
newpath
0 0 moveto
0 432.000000 rlineto
648.000000 0 rlineto
0 -432.000000 rlineto
closepath
0.500000 setlinewidth
stroke
newpath
5.000000 407.000000 moveto
0 20.000000 rlineto
638.000000 0 rlineto
0 -20.000000 rlineto
closepath
0.500000 setlinewidth
stroke
HE12 setfont
11.000000 413.000000 moveto
(HLolaStrict discretecover 5 lrta +R) show
HE12 setfont
(2,811,006 bytes x seconds)
dup stringwidth pop
2 div
319.000000
exch sub
413.000000 moveto
show
HE12 setfont
(Fri Sep  2 00:53 2022)
dup stringwidth pop
637.000000
exch sub
413.000000 moveto
show
45.000000 20.000000 moveto
521.480310 0 rlineto
0.500000 setlinewidth
stroke
HE10 setfont
(seconds)
dup stringwidth pop
566.480310
exch sub
5.000000 moveto
show
45.000000 20.000000 moveto
0 -4 rlineto
stroke
HE10 setfont
(0.0)
dup stringwidth pop
2 div
45.000000 exch sub
5.000000 moveto
show
150.727014 20.000000 moveto
0 -4 rlineto
stroke
HE10 setfont
(2.0)
dup stringwidth pop
2 div
150.727014 exch sub
5.000000 moveto
show
256.454027 20.000000 moveto
0 -4 rlineto
stroke
HE10 setfont
(4.0)
dup stringwidth pop
2 div
256.454027 exch sub
5.000000 moveto
show
362.181041 20.000000 moveto
0 -4 rlineto
stroke
HE10 setfont
(6.0)
dup stringwidth pop
2 div
362.181041 exch sub
5.000000 moveto
show
467.908055 20.000000 moveto
0 -4 rlineto
stroke
HE10 setfont
(8.0)
dup stringwidth pop
2 div
467.908055 exch sub
5.000000 moveto
show
45.000000 20.000000 moveto
0 382.000000 rlineto
0.500000 setlinewidth
stroke
gsave
HE10 setfont
(bytes)
dup stringwidth pop
402.000000
exch sub
40.000000 exch
translate
90 rotate
0 0 moveto
show
grestore
45.000000 20.000000 moveto
-4 0 rlineto
stroke
HE10 setfont
(0k)
dup stringwidth
2 div
20.000000 exch sub
exch
40.000000 exch sub
exch
moveto
show
45.000000 84.707158 moveto
-4 0 rlineto
stroke
HE10 setfont
(50k)
dup stringwidth
2 div
84.707158 exch sub
exch
40.000000 exch sub
exch
moveto
show
45.000000 149.414316 moveto
-4 0 rlineto
stroke
HE10 setfont
(100k)
dup stringwidth
2 div
149.414316 exch sub
exch
40.000000 exch sub
exch
moveto
show
45.000000 214.121473 moveto
-4 0 rlineto
stroke
HE10 setfont
(150k)
dup stringwidth
2 div
214.121473 exch sub
exch
40.000000 exch sub
exch
moveto
show
45.000000 278.828631 moveto
-4 0 rlineto
stroke
HE10 setfont
(200k)
dup stringwidth
2 div
278.828631 exch sub
exch
40.000000 exch sub
exch
moveto
show
45.000000 343.535789 moveto
-4 0 rlineto
stroke
HE10 setfont
(250k)
dup stringwidth
2 div
343.535789 exch sub
exch
40.000000 exch sub
exch
moveto
show
571.480310 204.000000 moveto
0 14 rlineto
14 0 rlineto
0 -14 rlineto
closepath
gsave
0.000000 0.000000 0.000000 setrgbcolor
fill
grestore
stroke
HE10 setfont
590.480310 206.000000 moveto
(OTHER) show
45.000000 20.000000 moveto
45.000000 20.000000 lineto
52.288662 20.000000 lineto
60.572585 20.000000 lineto
69.243099 20.000000 lineto
77.692220 20.000000 lineto
85.905729 20.000000 lineto
93.547942 20.000000 lineto
101.901116 20.000000 lineto
110.133127 20.000000 lineto
118.443904 20.000000 lineto
126.972268 20.000000 lineto
135.222940 20.000000 lineto
143.914282 20.000000 lineto
152.041941 20.000000 lineto
160.290815 20.000000 lineto
168.719690 20.000000 lineto
176.770802 20.000000 lineto
184.961156 20.000000 lineto
193.527265 20.000000 lineto
201.447275 20.000000 lineto
209.718511 20.000000 lineto
217.470997 20.000000 lineto
225.540612 20.000000 lineto
234.026737 20.000000 lineto
242.337357 20.000000 lineto
250.496892 20.000000 lineto
258.780445 20.000000 lineto
267.092808 20.000000 lineto
274.957682 20.000000 lineto
283.545517 20.000000 lineto
291.704312 20.000000 lineto
299.765944 20.000000 lineto
307.635946 20.000000 lineto
315.421419 20.000000 lineto
323.947404 20.000000 lineto
331.683873 20.000000 lineto
340.086950 20.000000 lineto
347.974079 20.000000 lineto
356.130390 20.000000 lineto
364.127581 20.000000 lineto
372.098076 20.000000 lineto
379.964589 20.000000 lineto
388.202732 20.000000 lineto
395.824434 20.000000 lineto
403.877555 20.000000 lineto
412.176386 20.000000 lineto
420.909543 20.000000 lineto
428.985553 20.000000 lineto
437.213335 20.000000 lineto
445.417699 20.000000 lineto
452.914114 20.000000 lineto
460.846019 20.000000 lineto
469.019034 20.000000 lineto
477.343979 20.000000 lineto
485.584607 20.000000 lineto
493.799807 20.000000 lineto
501.748470 20.000000 lineto
510.423054 20.000000 lineto
517.820826 20.000000 lineto
525.984326 20.000000 lineto
534.518135 20.000000 lineto
542.680578 20.000000 lineto
550.620042 20.000000 lineto
558.807278 20.000000 lineto
566.480310 20.000000 lineto
566.480310 380.434398 lineto
566.480310 380.434398 lineto
558.807278 395.632816 lineto
550.620042 402.000000 lineto
542.680578 401.316692 lineto
534.518135 377.359514 lineto
525.984326 395.270456 lineto
517.820826 391.646855 lineto
510.423054 397.962273 lineto
501.748470 400.509147 lineto
493.799807 373.207903 lineto
485.584607 394.587148 lineto
477.343979 398.593815 lineto
469.019034 401.544462 lineto
460.846019 395.601756 lineto
452.914114 375.537361 lineto
445.417699 391.626148 lineto
437.213335 393.075589 lineto
428.985553 396.088354 lineto
420.909543 391.667561 lineto
412.176386 376.903976 lineto
403.877555 398.355693 lineto
395.824434 399.515245 lineto
388.202732 380.434398 lineto
379.964589 399.515245 lineto
372.098076 391.584736 lineto
364.127581 398.945822 lineto
356.130390 374.854053 lineto
347.974079 400.177846 lineto
340.086950 395.653522 lineto
331.683873 378.684717 lineto
323.947404 397.993333 lineto
315.421419 398.221102 lineto
307.635946 395.933057 lineto
299.765944 401.492696 lineto
291.704312 375.858308 lineto
283.545517 374.967938 lineto
274.957682 401.513402 lineto
267.092808 395.591403 lineto
258.780445 392.050627 lineto
250.496892 394.928802 lineto
242.337357 380.382633 lineto
234.026737 393.500068 lineto
225.540612 376.003252 lineto
217.470997 397.962273 lineto
209.718511 378.705423 lineto
201.447275 399.567011 lineto
193.527265 395.746700 lineto
184.961156 394.659620 lineto
176.770802 391.781446 lineto
168.719690 391.522617 lineto
160.290815 394.866683 lineto
152.041941 398.045099 lineto
143.914282 391.584736 lineto
135.222940 399.515245 lineto
126.972268 380.486164 lineto
118.443904 398.366046 lineto
110.133127 395.643169 lineto
101.901116 375.620186 lineto
93.547942 375.858308 lineto
85.905729 401.285633 lineto
77.692220 394.587148 lineto
69.243099 394.908096 lineto
60.572585 374.170746 lineto
52.288662 391.553676 lineto
45.000000 20.000000 lineto
closepath
gsave
0.000000 0.000000 0.000000 setrgbcolor
fill
grestore
stroke
showpage
