%!PS-Adobe-2.0
%%Title: HLola multipolys +RTS -N -hc -i0.1
%%Creator: hp2ps (version 0.25)
%%CreationDate: Fri Sep  2 00:53 2022
%%EndComments
-90 rotate
-756.000000 72.000000 translate
/HE10 /Helvetica findfont 10 scalefont def
/HE12 /Helvetica findfont 12 scalefont def
newpath
0 0 moveto
0 432.000000 rlineto
648.000000 0 rlineto
0 -432.000000 rlineto
closepath
0.500000 setlinewidth
stroke
newpath
5.000000 407.000000 moveto
0 20.000000 rlineto
638.000000 0 rlineto
0 -20.000000 rlineto
closepath
0.500000 setlinewidth
stroke
HE12 setfont
11.000000 413.000000 moveto
(HLola multipolys +RTS -N -hc -i0.1) show
HE12 setfont
(3,124,341 bytes x seconds)
dup stringwidth pop
2 div
319.000000
exch sub
413.000000 moveto
show
HE12 setfont
(Fri Sep  2 00:53 2022)
dup stringwidth pop
637.000000
exch sub
413.000000 moveto
show
45.000000 20.000000 moveto
521.480310 0 rlineto
0.500000 setlinewidth
stroke
HE10 setfont
(seconds)
dup stringwidth pop
566.480310
exch sub
5.000000 moveto
show
45.000000 20.000000 moveto
0 -4 rlineto
stroke
HE10 setfont
(0.0)
dup stringwidth pop
2 div
45.000000 exch sub
5.000000 moveto
show
147.469764 20.000000 moveto
0 -4 rlineto
stroke
HE10 setfont
(2.0)
dup stringwidth pop
2 div
147.469764 exch sub
5.000000 moveto
show
249.939528 20.000000 moveto
0 -4 rlineto
stroke
HE10 setfont
(4.0)
dup stringwidth pop
2 div
249.939528 exch sub
5.000000 moveto
show
352.409292 20.000000 moveto
0 -4 rlineto
stroke
HE10 setfont
(6.0)
dup stringwidth pop
2 div
352.409292 exch sub
5.000000 moveto
show
454.879056 20.000000 moveto
0 -4 rlineto
stroke
HE10 setfont
(8.0)
dup stringwidth pop
2 div
454.879056 exch sub
5.000000 moveto
show
45.000000 20.000000 moveto
0 382.000000 rlineto
0.500000 setlinewidth
stroke
gsave
HE10 setfont
(bytes)
dup stringwidth pop
402.000000
exch sub
40.000000 exch
translate
90 rotate
0 0 moveto
show
grestore
45.000000 20.000000 moveto
-4 0 rlineto
stroke
HE10 setfont
(0k)
dup stringwidth
2 div
20.000000 exch sub
exch
40.000000 exch sub
exch
moveto
show
45.000000 80.464468 moveto
-4 0 rlineto
stroke
HE10 setfont
(50k)
dup stringwidth
2 div
80.464468 exch sub
exch
40.000000 exch sub
exch
moveto
show
45.000000 140.928937 moveto
-4 0 rlineto
stroke
HE10 setfont
(100k)
dup stringwidth
2 div
140.928937 exch sub
exch
40.000000 exch sub
exch
moveto
show
45.000000 201.393405 moveto
-4 0 rlineto
stroke
HE10 setfont
(150k)
dup stringwidth
2 div
201.393405 exch sub
exch
40.000000 exch sub
exch
moveto
show
45.000000 261.857874 moveto
-4 0 rlineto
stroke
HE10 setfont
(200k)
dup stringwidth
2 div
261.857874 exch sub
exch
40.000000 exch sub
exch
moveto
show
45.000000 322.322342 moveto
-4 0 rlineto
stroke
HE10 setfont
(250k)
dup stringwidth
2 div
322.322342 exch sub
exch
40.000000 exch sub
exch
moveto
show
571.480310 204.000000 moveto
0 14 rlineto
14 0 rlineto
0 -14 rlineto
closepath
gsave
0.000000 0.000000 0.000000 setrgbcolor
fill
grestore
stroke
HE10 setfont
590.480310 206.000000 moveto
(OTHER) show
45.000000 20.000000 moveto
45.000000 20.000000 lineto
51.489103 20.000000 lineto
59.567460 20.000000 lineto
67.845685 20.000000 lineto
76.428399 20.000000 lineto
85.208059 20.000000 lineto
92.922291 20.000000 lineto
100.929073 20.000000 lineto
110.112926 20.000000 lineto
117.588402 20.000000 lineto
126.256525 20.000000 lineto
133.704949 20.000000 lineto
141.920565 20.000000 lineto
149.637358 20.000000 lineto
157.022661 20.000000 lineto
165.362932 20.000000 lineto
173.416901 20.000000 lineto
181.596806 20.000000 lineto
190.271384 20.000000 lineto
199.083938 20.000000 lineto
207.749037 20.000000 lineto
216.987762 20.000000 lineto
224.462009 20.000000 lineto
232.516645 20.000000 lineto
240.658944 20.000000 lineto
248.587388 20.000000 lineto
256.644739 20.000000 lineto
264.412716 20.000000 lineto
272.557064 20.000000 lineto
280.487045 20.000000 lineto
289.171665 20.000000 lineto
297.270875 20.000000 lineto
305.248300 20.000000 lineto
313.289512 20.000000 lineto
321.577164 20.000000 lineto
329.099521 20.000000 lineto
336.027143 20.000000 lineto
344.040689 20.000000 lineto
351.519239 20.000000 lineto
360.246794 20.000000 lineto
368.138093 20.000000 lineto
377.009720 20.000000 lineto
385.202434 20.000000 lineto
392.917229 20.000000 lineto
401.182594 20.000000 lineto
409.232055 20.000000 lineto
417.435221 20.000000 lineto
425.291219 20.000000 lineto
433.610585 20.000000 lineto
442.102972 20.000000 lineto
450.222420 20.000000 lineto
458.381421 20.000000 lineto
466.749563 20.000000 lineto
475.040699 20.000000 lineto
484.426724 20.000000 lineto
493.136142 20.000000 lineto
501.088667 20.000000 lineto
509.889743 20.000000 lineto
517.912152 20.000000 lineto
526.024479 20.000000 lineto
534.286308 20.000000 lineto
542.478766 20.000000 lineto
550.452297 20.000000 lineto
559.235749 20.000000 lineto
566.480310 20.000000 lineto
566.480310 399.107380 lineto
566.480310 399.107380 lineto
559.235749 388.543028 lineto
550.452297 394.686218 lineto
542.478766 383.231829 lineto
534.286308 383.154434 lineto
526.024479 383.299549 lineto
517.912152 398.207669 lineto
509.889743 382.612673 lineto
501.088667 382.641696 lineto
493.136142 383.405967 lineto
484.426724 399.000962 lineto
475.040699 395.672998 lineto
466.749563 399.736210 lineto
458.381421 383.589779 lineto
450.222420 383.299549 lineto
442.102972 383.357595 lineto
433.610585 383.638150 lineto
425.291219 396.795219 lineto
417.435221 383.618802 lineto
409.232055 385.418224 lineto
401.182594 398.110925 lineto
392.917229 398.052880 lineto
385.202434 395.924530 lineto
377.009720 397.830370 lineto
368.138093 398.604315 lineto
360.246794 385.050600 lineto
351.519239 398.749430 lineto
344.040689 400.626247 lineto
336.027143 398.526921 lineto
329.099521 400.452110 lineto
321.577164 398.256040 lineto
313.289512 398.420503 lineto
305.248300 400.248949 lineto
297.270875 399.213797 lineto
289.171665 401.042243 lineto
280.487045 385.640733 lineto
272.557064 399.291192 lineto
264.412716 400.432761 lineto
256.644739 401.051917 lineto
248.587388 385.292458 lineto
240.658944 385.215064 lineto
232.516645 399.920022 lineto
224.462009 397.849719 lineto
216.987762 401.284101 lineto
207.749037 385.843894 lineto
199.083938 385.805197 lineto
190.271384 399.900674 lineto
181.596806 400.616573 lineto
173.416901 385.766500 lineto
165.362932 398.314086 lineto
157.022661 398.923568 lineto
149.637358 386.105101 lineto
141.920565 402.000000 lineto
133.704949 385.360178 lineto
126.256525 386.395330 lineto
117.588402 400.239275 lineto
110.112926 400.568201 lineto
100.929073 399.281517 lineto
92.922291 387.111229 lineto
85.208059 401.458238 lineto
76.428399 400.897128 lineto
67.845685 401.400192 lineto
59.567460 386.182495 lineto
51.489103 400.587550 lineto
45.000000 20.000000 lineto
closepath
gsave
0.000000 0.000000 0.000000 setrgbcolor
fill
grestore
stroke
showpage
