%!PS-Adobe-2.0
%%Title: HLolaStrict discretecover 5 edgecounting +RTS -N -hc -i0.1
%%Creator: hp2ps (version 0.25)
%%CreationDate: Fri Sep  2 00:54 2022
%%EndComments
-90 rotate
-756.000000 72.000000 translate
/HE10 /Helvetica findfont 10 scalefont def
/HE12 /Helvetica findfont 12 scalefont def
newpath
0 0 moveto
0 432.000000 rlineto
648.000000 0 rlineto
0 -432.000000 rlineto
closepath
0.500000 setlinewidth
stroke
newpath
5.000000 407.000000 moveto
0 20.000000 rlineto
638.000000 0 rlineto
0 -20.000000 rlineto
closepath
0.500000 setlinewidth
stroke
HE12 setfont
11.000000 413.000000 moveto
(HLolaStrict discretecover 5 edgecou) show
HE12 setfont
(2,818,862 bytes x seconds)
dup stringwidth pop
2 div
319.000000
exch sub
413.000000 moveto
show
HE12 setfont
(Fri Sep  2 00:54 2022)
dup stringwidth pop
637.000000
exch sub
413.000000 moveto
show
45.000000 20.000000 moveto
521.480310 0 rlineto
0.500000 setlinewidth
stroke
HE10 setfont
(seconds)
dup stringwidth pop
566.480310
exch sub
5.000000 moveto
show
45.000000 20.000000 moveto
0 -4 rlineto
stroke
HE10 setfont
(0.0)
dup stringwidth pop
2 div
45.000000 exch sub
5.000000 moveto
show
148.445399 20.000000 moveto
0 -4 rlineto
stroke
HE10 setfont
(2.0)
dup stringwidth pop
2 div
148.445399 exch sub
5.000000 moveto
show
251.890799 20.000000 moveto
0 -4 rlineto
stroke
HE10 setfont
(4.0)
dup stringwidth pop
2 div
251.890799 exch sub
5.000000 moveto
show
355.336198 20.000000 moveto
0 -4 rlineto
stroke
HE10 setfont
(6.0)
dup stringwidth pop
2 div
355.336198 exch sub
5.000000 moveto
show
458.781598 20.000000 moveto
0 -4 rlineto
stroke
HE10 setfont
(8.0)
dup stringwidth pop
2 div
458.781598 exch sub
5.000000 moveto
show
45.000000 20.000000 moveto
0 382.000000 rlineto
0.500000 setlinewidth
stroke
gsave
HE10 setfont
(bytes)
dup stringwidth pop
402.000000
exch sub
40.000000 exch
translate
90 rotate
0 0 moveto
show
grestore
45.000000 20.000000 moveto
-4 0 rlineto
stroke
HE10 setfont
(0k)
dup stringwidth
2 div
20.000000 exch sub
exch
40.000000 exch sub
exch
moveto
show
45.000000 85.558240 moveto
-4 0 rlineto
stroke
HE10 setfont
(50k)
dup stringwidth
2 div
85.558240 exch sub
exch
40.000000 exch sub
exch
moveto
show
45.000000 151.116481 moveto
-4 0 rlineto
stroke
HE10 setfont
(100k)
dup stringwidth
2 div
151.116481 exch sub
exch
40.000000 exch sub
exch
moveto
show
45.000000 216.674721 moveto
-4 0 rlineto
stroke
HE10 setfont
(150k)
dup stringwidth
2 div
216.674721 exch sub
exch
40.000000 exch sub
exch
moveto
show
45.000000 282.232962 moveto
-4 0 rlineto
stroke
HE10 setfont
(200k)
dup stringwidth
2 div
282.232962 exch sub
exch
40.000000 exch sub
exch
moveto
show
45.000000 347.791202 moveto
-4 0 rlineto
stroke
HE10 setfont
(250k)
dup stringwidth
2 div
347.791202 exch sub
exch
40.000000 exch sub
exch
moveto
show
571.480310 204.000000 moveto
0 14 rlineto
14 0 rlineto
0 -14 rlineto
closepath
gsave
0.000000 0.000000 0.000000 setrgbcolor
fill
grestore
stroke
HE10 setfont
590.480310 206.000000 moveto
(OTHER) show
45.000000 20.000000 moveto
45.000000 20.000000 lineto
51.582024 20.000000 lineto
59.511838 20.000000 lineto
67.576752 20.000000 lineto
75.818453 20.000000 lineto
84.212841 20.000000 lineto
92.391234 20.000000 lineto
100.711192 20.000000 lineto
108.925533 20.000000 lineto
116.808693 20.000000 lineto
124.827367 20.000000 lineto
132.824575 20.000000 lineto
140.635272 20.000000 lineto
148.299438 20.000000 lineto
156.497796 20.000000 lineto
164.389025 20.000000 lineto
172.537264 20.000000 lineto
180.576937 20.000000 lineto
188.909878 20.000000 lineto
196.685868 20.000000 lineto
205.157116 20.000000 lineto
213.014156 20.000000 lineto
221.209255 20.000000 lineto
229.316478 20.000000 lineto
237.472062 20.000000 lineto
245.402859 20.000000 lineto
253.280019 20.000000 lineto
261.375966 20.000000 lineto
269.345245 20.000000 lineto
277.370021 20.000000 lineto
285.485210 20.000000 lineto
293.203116 20.000000 lineto
301.405560 20.000000 lineto
309.508283 20.000000 lineto
317.922946 20.000000 lineto
326.207784 20.000000 lineto
334.158235 20.000000 lineto
342.196977 20.000000 lineto
351.578079 20.000000 lineto
360.172219 20.000000 lineto
367.744577 20.000000 lineto
375.875644 20.000000 lineto
383.654532 20.000000 lineto
391.515658 20.000000 lineto
398.940400 20.000000 lineto
407.035313 20.000000 lineto
414.866595 20.000000 lineto
423.754158 20.000000 lineto
431.553631 20.000000 lineto
439.550322 20.000000 lineto
447.662355 20.000000 lineto
455.381244 20.000000 lineto
463.548103 20.000000 lineto
471.764564 20.000000 lineto
480.300258 20.000000 lineto
488.077025 20.000000 lineto
496.234418 20.000000 lineto
504.492982 20.000000 lineto
512.128752 20.000000 lineto
519.896416 20.000000 lineto
527.223453 20.000000 lineto
534.815311 20.000000 lineto
542.647266 20.000000 lineto
550.187504 20.000000 lineto
558.334605 20.000000 lineto
566.480310 20.000000 lineto
566.480310 397.993080 lineto
566.480310 397.993080 lineto
558.334605 394.174968 lineto
550.187504 374.591411 lineto
542.647266 395.014114 lineto
534.815311 379.899006 lineto
527.223453 374.192817 lineto
519.896416 399.220331 lineto
512.128752 375.556428 lineto
504.492982 375.357131 lineto
496.234418 399.304245 lineto
488.077025 375.220770 lineto
480.300258 391.133066 lineto
471.764564 374.580922 lineto
463.548103 375.367620 lineto
455.381244 394.174968 lineto
447.662355 390.157559 lineto
439.550322 395.213411 lineto
431.553631 375.315174 lineto
423.754158 396.262343 lineto
414.866595 398.947608 lineto
407.035313 399.251799 lineto
398.940400 374.423582 lineto
391.515658 375.535450 lineto
383.654532 375.294195 lineto
375.875644 397.153935 lineto
367.744577 375.157834 lineto
360.172219 401.108408 lineto
351.578079 374.643857 lineto
342.196977 375.157834 lineto
334.158235 373.825691 lineto
326.207784 395.286836 lineto
317.922946 375.346642 lineto
309.508283 393.042122 lineto
301.405560 401.276237 lineto
293.203116 374.895601 lineto
285.485210 400.573453 lineto
277.370021 400.353177 lineto
269.345245 400.604921 lineto
261.375966 394.500137 lineto
253.280019 391.080619 lineto
245.402859 391.154045 lineto
237.472062 399.965072 lineto
229.316478 394.248394 lineto
221.209255 400.930090 lineto
213.014156 400.374156 lineto
205.157116 400.458070 lineto
196.685868 397.521061 lineto
188.909878 375.199791 lineto
180.576937 375.577407 lineto
172.537264 400.311220 lineto
164.389025 399.262288 lineto
156.497796 400.573453 lineto
148.299438 375.451535 lineto
140.635272 396.125982 lineto
132.824575 373.962052 lineto
124.827367 393.839310 lineto
116.808693 375.262727 lineto
108.925533 394.426712 lineto
100.711192 398.632929 lineto
92.391234 399.356692 lineto
84.212841 402.000000 lineto
75.818453 394.269372 lineto
67.576752 373.573947 lineto
59.511838 391.154045 lineto
51.582024 398.748311 lineto
45.000000 20.000000 lineto
closepath
gsave
0.000000 0.000000 0.000000 setrgbcolor
fill
grestore
stroke
showpage
