%!PS-Adobe-2.0
%%Title: HLola patrolgive mon3 +RTS -N -hc -i0.1
%%Creator: hp2ps (version 0.25)
%%CreationDate: Fri Sep  2 00:53 2022
%%EndComments
-90 rotate
-756.000000 72.000000 translate
/HE10 /Helvetica findfont 10 scalefont def
/HE12 /Helvetica findfont 12 scalefont def
newpath
0 0 moveto
0 432.000000 rlineto
648.000000 0 rlineto
0 -432.000000 rlineto
closepath
0.500000 setlinewidth
stroke
newpath
5.000000 407.000000 moveto
0 20.000000 rlineto
638.000000 0 rlineto
0 -20.000000 rlineto
closepath
0.500000 setlinewidth
stroke
HE12 setfont
11.000000 413.000000 moveto
(HLola patrolgive mon3 +RTS -N -hc -) show
HE12 setfont
(2,921,606 bytes x seconds)
dup stringwidth pop
2 div
319.000000
exch sub
413.000000 moveto
show
HE12 setfont
(Fri Sep  2 00:53 2022)
dup stringwidth pop
637.000000
exch sub
413.000000 moveto
show
45.000000 20.000000 moveto
521.480310 0 rlineto
0.500000 setlinewidth
stroke
HE10 setfont
(seconds)
dup stringwidth pop
566.480310
exch sub
5.000000 moveto
show
45.000000 20.000000 moveto
0 -4 rlineto
stroke
HE10 setfont
(0.0)
dup stringwidth pop
2 div
45.000000 exch sub
5.000000 moveto
show
147.809468 20.000000 moveto
0 -4 rlineto
stroke
HE10 setfont
(2.0)
dup stringwidth pop
2 div
147.809468 exch sub
5.000000 moveto
show
250.618936 20.000000 moveto
0 -4 rlineto
stroke
HE10 setfont
(4.0)
dup stringwidth pop
2 div
250.618936 exch sub
5.000000 moveto
show
353.428404 20.000000 moveto
0 -4 rlineto
stroke
HE10 setfont
(6.0)
dup stringwidth pop
2 div
353.428404 exch sub
5.000000 moveto
show
456.237872 20.000000 moveto
0 -4 rlineto
stroke
HE10 setfont
(8.0)
dup stringwidth pop
2 div
456.237872 exch sub
5.000000 moveto
show
45.000000 20.000000 moveto
0 382.000000 rlineto
0.500000 setlinewidth
stroke
gsave
HE10 setfont
(bytes)
dup stringwidth pop
402.000000
exch sub
40.000000 exch
translate
90 rotate
0 0 moveto
show
grestore
45.000000 20.000000 moveto
-4 0 rlineto
stroke
HE10 setfont
(0k)
dup stringwidth
2 div
20.000000 exch sub
exch
40.000000 exch sub
exch
moveto
show
45.000000 84.631835 moveto
-4 0 rlineto
stroke
HE10 setfont
(50k)
dup stringwidth
2 div
84.631835 exch sub
exch
40.000000 exch sub
exch
moveto
show
45.000000 149.263671 moveto
-4 0 rlineto
stroke
HE10 setfont
(100k)
dup stringwidth
2 div
149.263671 exch sub
exch
40.000000 exch sub
exch
moveto
show
45.000000 213.895506 moveto
-4 0 rlineto
stroke
HE10 setfont
(150k)
dup stringwidth
2 div
213.895506 exch sub
exch
40.000000 exch sub
exch
moveto
show
45.000000 278.527342 moveto
-4 0 rlineto
stroke
HE10 setfont
(200k)
dup stringwidth
2 div
278.527342 exch sub
exch
40.000000 exch sub
exch
moveto
show
45.000000 343.159177 moveto
-4 0 rlineto
stroke
HE10 setfont
(250k)
dup stringwidth
2 div
343.159177 exch sub
exch
40.000000 exch sub
exch
moveto
show
571.480310 204.000000 moveto
0 14 rlineto
14 0 rlineto
0 -14 rlineto
closepath
gsave
0.000000 0.000000 0.000000 setrgbcolor
fill
grestore
stroke
HE10 setfont
590.480310 206.000000 moveto
(OTHER) show
45.000000 20.000000 moveto
45.000000 20.000000 lineto
51.822231 20.000000 lineto
60.860005 20.000000 lineto
70.633639 20.000000 lineto
78.857677 20.000000 lineto
86.758430 20.000000 lineto
95.365433 20.000000 lineto
103.451398 20.000000 lineto
111.565584 20.000000 lineto
119.582306 20.000000 lineto
128.760518 20.000000 lineto
136.759712 20.000000 lineto
145.258919 20.000000 lineto
153.463372 20.000000 lineto
161.845376 20.000000 lineto
169.874590 20.000000 lineto
178.658425 20.000000 lineto
187.069217 20.000000 lineto
195.177491 20.000000 lineto
203.129289 20.000000 lineto
211.381343 20.000000 lineto
218.721630 20.000000 lineto
225.969132 20.000000 lineto
234.725877 20.000000 lineto
243.262147 20.000000 lineto
251.758322 20.000000 lineto
260.903841 20.000000 lineto
269.190130 20.000000 lineto
277.070475 20.000000 lineto
285.304280 20.000000 lineto
293.926499 20.000000 lineto
301.919935 20.000000 lineto
309.853279 20.000000 lineto
317.924182 20.000000 lineto
326.034718 20.000000 lineto
334.787300 20.000000 lineto
342.772665 20.000000 lineto
350.472940 20.000000 lineto
358.505906 20.000000 lineto
366.700181 20.000000 lineto
374.568960 20.000000 lineto
382.801377 20.000000 lineto
392.041584 20.000000 lineto
400.053371 20.000000 lineto
408.399958 20.000000 lineto
416.784738 20.000000 lineto
426.348949 20.000000 lineto
434.231145 20.000000 lineto
442.471581 20.000000 lineto
450.778895 20.000000 lineto
458.560646 20.000000 lineto
466.367226 20.000000 lineto
474.737973 20.000000 lineto
483.016397 20.000000 lineto
490.979401 20.000000 lineto
499.276382 20.000000 lineto
507.555372 20.000000 lineto
516.146388 20.000000 lineto
524.533173 20.000000 lineto
532.440198 20.000000 lineto
540.538757 20.000000 lineto
549.120109 20.000000 lineto
558.586805 20.000000 lineto
566.480310 20.000000 lineto
566.480310 401.937953 lineto
566.480310 401.937953 lineto
558.586805 397.460260 lineto
549.120109 384.513211 lineto
540.538757 401.069302 lineto
532.440198 400.148944 lineto
524.533173 384.327071 lineto
516.146388 401.865566 lineto
507.555372 397.904927 lineto
499.276382 384.161613 lineto
490.979401 401.307147 lineto
483.016397 397.243097 lineto
474.737973 384.761397 lineto
466.367226 401.307147 lineto
458.560646 397.718787 lineto
450.778895 392.341419 lineto
442.471581 400.117921 lineto
434.231145 384.275365 lineto
426.348949 401.100325 lineto
416.784738 398.432323 lineto
408.399958 384.358094 lineto
400.053371 401.069302 lineto
392.041584 400.438495 lineto
382.801377 384.254683 lineto
374.568960 400.779751 lineto
366.700181 398.194478 lineto
358.505906 384.244342 lineto
350.472940 401.369193 lineto
342.772665 400.055874 lineto
334.787300 384.337412 lineto
326.034718 393.148024 lineto
317.924182 397.842880 lineto
309.853279 384.999242 lineto
301.919935 400.552247 lineto
293.926499 384.564916 lineto
285.304280 392.734380 lineto
277.070475 400.190309 lineto
269.190130 384.378776 lineto
260.903841 401.741473 lineto
251.758322 400.148944 lineto
243.262147 384.513211 lineto
234.725877 392.434488 lineto
225.969132 400.128262 lineto
218.721630 384.306389 lineto
211.381343 402.000000 lineto
203.129289 400.603952 lineto
195.177491 384.564916 lineto
187.069217 392.506876 lineto
178.658425 401.824201 lineto
169.874590 400.200650 lineto
161.845376 384.337412 lineto
153.463372 397.708446 lineto
145.258919 391.782999 lineto
136.759712 400.335084 lineto
128.760518 397.698105 lineto
119.582306 392.796427 lineto
111.565584 400.655658 lineto
103.451398 384.420141 lineto
95.365433 401.596697 lineto
86.758430 400.014510 lineto
78.857677 384.358094 lineto
70.633639 401.751814 lineto
60.860005 400.490200 lineto
51.822231 397.160368 lineto
45.000000 20.000000 lineto
closepath
gsave
0.000000 0.000000 0.000000 setrgbcolor
fill
grestore
stroke
showpage
