%!PS-Adobe-2.0
%%Title: HLola patrolgive mon2 +RTS -N -hc -i0.1
%%Creator: hp2ps (version 0.25)
%%CreationDate: Fri Sep  2 00:52 2022
%%EndComments
-90 rotate
-756.000000 72.000000 translate
/HE10 /Helvetica findfont 10 scalefont def
/HE12 /Helvetica findfont 12 scalefont def
newpath
0 0 moveto
0 432.000000 rlineto
648.000000 0 rlineto
0 -432.000000 rlineto
closepath
0.500000 setlinewidth
stroke
newpath
5.000000 407.000000 moveto
0 20.000000 rlineto
638.000000 0 rlineto
0 -20.000000 rlineto
closepath
0.500000 setlinewidth
stroke
HE12 setfont
11.000000 413.000000 moveto
(HLola patrolgive mon2 +RTS -N -hc -) show
HE12 setfont
(2,363,580 bytes x seconds)
dup stringwidth pop
2 div
319.000000
exch sub
413.000000 moveto
show
HE12 setfont
(Fri Sep  2 00:52 2022)
dup stringwidth pop
637.000000
exch sub
413.000000 moveto
show
45.000000 20.000000 moveto
521.480310 0 rlineto
0.500000 setlinewidth
stroke
HE10 setfont
(seconds)
dup stringwidth pop
566.480310
exch sub
5.000000 moveto
show
45.000000 20.000000 moveto
0 -4 rlineto
stroke
HE10 setfont
(0.0)
dup stringwidth pop
2 div
45.000000 exch sub
5.000000 moveto
show
149.940797 20.000000 moveto
0 -4 rlineto
stroke
HE10 setfont
(2.0)
dup stringwidth pop
2 div
149.940797 exch sub
5.000000 moveto
show
254.881595 20.000000 moveto
0 -4 rlineto
stroke
HE10 setfont
(4.0)
dup stringwidth pop
2 div
254.881595 exch sub
5.000000 moveto
show
359.822392 20.000000 moveto
0 -4 rlineto
stroke
HE10 setfont
(6.0)
dup stringwidth pop
2 div
359.822392 exch sub
5.000000 moveto
show
464.763189 20.000000 moveto
0 -4 rlineto
stroke
HE10 setfont
(8.0)
dup stringwidth pop
2 div
464.763189 exch sub
5.000000 moveto
show
45.000000 20.000000 moveto
0 382.000000 rlineto
0.500000 setlinewidth
stroke
gsave
HE10 setfont
(bytes)
dup stringwidth pop
402.000000
exch sub
40.000000 exch
translate
90 rotate
0 0 moveto
show
grestore
45.000000 20.000000 moveto
-4 0 rlineto
stroke
HE10 setfont
(0k)
dup stringwidth
2 div
20.000000 exch sub
exch
40.000000 exch sub
exch
moveto
show
45.000000 51.325854 moveto
-4 0 rlineto
stroke
HE10 setfont
(20k)
dup stringwidth
2 div
51.325854 exch sub
exch
40.000000 exch sub
exch
moveto
show
45.000000 82.651709 moveto
-4 0 rlineto
stroke
HE10 setfont
(40k)
dup stringwidth
2 div
82.651709 exch sub
exch
40.000000 exch sub
exch
moveto
show
45.000000 113.977563 moveto
-4 0 rlineto
stroke
HE10 setfont
(60k)
dup stringwidth
2 div
113.977563 exch sub
exch
40.000000 exch sub
exch
moveto
show
45.000000 145.303418 moveto
-4 0 rlineto
stroke
HE10 setfont
(80k)
dup stringwidth
2 div
145.303418 exch sub
exch
40.000000 exch sub
exch
moveto
show
45.000000 176.629272 moveto
-4 0 rlineto
stroke
HE10 setfont
(100k)
dup stringwidth
2 div
176.629272 exch sub
exch
40.000000 exch sub
exch
moveto
show
45.000000 207.955127 moveto
-4 0 rlineto
stroke
HE10 setfont
(120k)
dup stringwidth
2 div
207.955127 exch sub
exch
40.000000 exch sub
exch
moveto
show
45.000000 239.280981 moveto
-4 0 rlineto
stroke
HE10 setfont
(140k)
dup stringwidth
2 div
239.280981 exch sub
exch
40.000000 exch sub
exch
moveto
show
45.000000 270.606836 moveto
-4 0 rlineto
stroke
HE10 setfont
(160k)
dup stringwidth
2 div
270.606836 exch sub
exch
40.000000 exch sub
exch
moveto
show
45.000000 301.932690 moveto
-4 0 rlineto
stroke
HE10 setfont
(180k)
dup stringwidth
2 div
301.932690 exch sub
exch
40.000000 exch sub
exch
moveto
show
45.000000 333.258545 moveto
-4 0 rlineto
stroke
HE10 setfont
(200k)
dup stringwidth
2 div
333.258545 exch sub
exch
40.000000 exch sub
exch
moveto
show
571.480310 204.000000 moveto
0 14 rlineto
14 0 rlineto
0 -14 rlineto
closepath
gsave
0.000000 0.000000 0.000000 setrgbcolor
fill
grestore
stroke
HE10 setfont
590.480310 206.000000 moveto
(OTHER) show
45.000000 20.000000 moveto
45.000000 20.000000 lineto
50.979212 20.000000 lineto
59.530313 20.000000 lineto
68.017242 20.000000 lineto
75.965353 20.000000 lineto
84.122874 20.000000 lineto
92.711911 20.000000 lineto
102.921443 20.000000 lineto
111.456488 20.000000 lineto
119.871796 20.000000 lineto
128.124655 20.000000 lineto
136.596211 20.000000 lineto
144.202215 20.000000 lineto
153.492833 20.000000 lineto
161.551972 20.000000 lineto
168.758256 20.000000 lineto
176.331309 20.000000 lineto
184.253972 20.000000 lineto
191.779172 20.000000 lineto
200.482279 20.000000 lineto
208.779161 20.000000 lineto
217.156322 20.000000 lineto
225.577769 20.000000 lineto
233.417634 20.000000 lineto
241.632399 20.000000 lineto
249.384061 20.000000 lineto
257.460725 20.000000 lineto
265.850374 20.000000 lineto
273.441634 20.000000 lineto
281.274730 20.000000 lineto
289.003357 20.000000 lineto
296.859540 20.000000 lineto
304.541784 20.000000 lineto
312.836934 20.000000 lineto
320.468648 20.000000 lineto
328.891512 20.000000 lineto
337.312748 20.000000 lineto
345.566657 20.000000 lineto
354.184500 20.000000 lineto
361.619031 20.000000 lineto
369.933700 20.000000 lineto
377.847915 20.000000 lineto
385.736210 20.000000 lineto
394.155190 20.000000 lineto
402.083310 20.000000 lineto
410.463305 20.000000 lineto
418.385548 20.000000 lineto
427.158546 20.000000 lineto
435.452700 20.000000 lineto
443.656184 20.000000 lineto
452.300577 20.000000 lineto
459.912930 20.000000 lineto
467.974115 20.000000 lineto
475.468305 20.000000 lineto
483.200238 20.000000 lineto
491.912265 20.000000 lineto
499.985413 20.000000 lineto
507.778527 20.000000 lineto
516.041932 20.000000 lineto
524.400152 20.000000 lineto
532.814987 20.000000 lineto
541.125459 20.000000 lineto
549.225314 20.000000 lineto
558.285431 20.000000 lineto
566.480310 20.000000 lineto
566.480310 399.669356 lineto
566.480310 399.669356 lineto
558.285431 388.467231 lineto
549.225314 384.031490 lineto
541.125459 385.121630 lineto
532.814987 400.208161 lineto
524.400152 398.792233 lineto
516.041932 399.669356 lineto
507.778527 384.745719 lineto
499.985413 388.868202 lineto
491.912265 400.145509 lineto
483.200238 384.282097 lineto
475.468305 400.145509 lineto
467.974115 400.383586 lineto
459.912930 399.268385 lineto
452.300577 384.520173 lineto
443.656184 384.282097 lineto
435.452700 400.383586 lineto
427.158546 400.897330 lineto
418.385548 386.011284 lineto
410.463305 399.669356 lineto
402.083310 401.198058 lineto
394.155190 398.879945 lineto
385.736210 399.230794 lineto
377.847915 388.467231 lineto
369.933700 399.230794 lineto
361.619031 398.579217 lineto
354.184500 384.820901 lineto
345.566657 400.145509 lineto
337.312748 401.611559 lineto
328.891512 384.758250 lineto
320.468648 401.160467 lineto
312.836934 401.373483 lineto
304.541784 399.230794 lineto
296.859540 401.436135 lineto
289.003357 384.257036 lineto
281.274730 401.411074 lineto
273.441634 400.383586 lineto
265.850374 399.907433 lineto
257.460725 398.579217 lineto
249.384061 399.807190 lineto
241.632399 384.632946 lineto
233.417634 384.695598 lineto
225.577769 399.055370 lineto
217.156322 402.000000 lineto
208.779161 401.373483 lineto
200.482279 398.579217 lineto
191.779172 401.323362 lineto
184.253972 400.145509 lineto
176.331309 384.382339 lineto
168.758256 384.181854 lineto
161.551972 400.383586 lineto
153.492833 400.283343 lineto
144.202215 401.198058 lineto
136.596211 384.181854 lineto
128.124655 384.382339 lineto
119.871796 399.255855 lineto
111.456488 400.145509 lineto
102.921443 384.570295 lineto
92.711911 384.282097 lineto
84.122874 401.436135 lineto
75.965353 384.996326 lineto
68.017242 384.996326 lineto
59.530313 398.579217 lineto
50.979212 399.230794 lineto
45.000000 20.000000 lineto
closepath
gsave
0.000000 0.000000 0.000000 setrgbcolor
fill
grestore
stroke
showpage
