%!PS-Adobe-2.0
%%Title: HLola iterator +RTS -N -hc -i0.1
%%Creator: hp2ps (version 0.25)
%%CreationDate: Fri Sep  2 00:53 2022
%%EndComments
-90 rotate
-756.000000 72.000000 translate
/HE10 /Helvetica findfont 10 scalefont def
/HE12 /Helvetica findfont 12 scalefont def
newpath
0 0 moveto
0 432.000000 rlineto
648.000000 0 rlineto
0 -432.000000 rlineto
closepath
0.500000 setlinewidth
stroke
newpath
5.000000 407.000000 moveto
0 20.000000 rlineto
638.000000 0 rlineto
0 -20.000000 rlineto
closepath
0.500000 setlinewidth
stroke
HE12 setfont
11.000000 413.000000 moveto
(HLola iterator +RTS -N -hc -i0.1) show
HE12 setfont
(2,591,633 bytes x seconds)
dup stringwidth pop
2 div
319.000000
exch sub
413.000000 moveto
show
HE12 setfont
(Fri Sep  2 00:53 2022)
dup stringwidth pop
637.000000
exch sub
413.000000 moveto
show
45.000000 20.000000 moveto
521.480310 0 rlineto
0.500000 setlinewidth
stroke
HE10 setfont
(seconds)
dup stringwidth pop
566.480310
exch sub
5.000000 moveto
show
45.000000 20.000000 moveto
0 -4 rlineto
stroke
HE10 setfont
(0.0)
dup stringwidth pop
2 div
45.000000 exch sub
5.000000 moveto
show
147.934953 20.000000 moveto
0 -4 rlineto
stroke
HE10 setfont
(2.0)
dup stringwidth pop
2 div
147.934953 exch sub
5.000000 moveto
show
250.869906 20.000000 moveto
0 -4 rlineto
stroke
HE10 setfont
(4.0)
dup stringwidth pop
2 div
250.869906 exch sub
5.000000 moveto
show
353.804859 20.000000 moveto
0 -4 rlineto
stroke
HE10 setfont
(6.0)
dup stringwidth pop
2 div
353.804859 exch sub
5.000000 moveto
show
456.739812 20.000000 moveto
0 -4 rlineto
stroke
HE10 setfont
(8.0)
dup stringwidth pop
2 div
456.739812 exch sub
5.000000 moveto
show
45.000000 20.000000 moveto
0 382.000000 rlineto
0.500000 setlinewidth
stroke
gsave
HE10 setfont
(bytes)
dup stringwidth pop
402.000000
exch sub
40.000000 exch
translate
90 rotate
0 0 moveto
show
grestore
45.000000 20.000000 moveto
-4 0 rlineto
stroke
HE10 setfont
(0k)
dup stringwidth
2 div
20.000000 exch sub
exch
40.000000 exch sub
exch
moveto
show
45.000000 85.169919 moveto
-4 0 rlineto
stroke
HE10 setfont
(50k)
dup stringwidth
2 div
85.169919 exch sub
exch
40.000000 exch sub
exch
moveto
show
45.000000 150.339839 moveto
-4 0 rlineto
stroke
HE10 setfont
(100k)
dup stringwidth
2 div
150.339839 exch sub
exch
40.000000 exch sub
exch
moveto
show
45.000000 215.509758 moveto
-4 0 rlineto
stroke
HE10 setfont
(150k)
dup stringwidth
2 div
215.509758 exch sub
exch
40.000000 exch sub
exch
moveto
show
45.000000 280.679678 moveto
-4 0 rlineto
stroke
HE10 setfont
(200k)
dup stringwidth
2 div
280.679678 exch sub
exch
40.000000 exch sub
exch
moveto
show
45.000000 345.849597 moveto
-4 0 rlineto
stroke
HE10 setfont
(250k)
dup stringwidth
2 div
345.849597 exch sub
exch
40.000000 exch sub
exch
moveto
show
571.480310 204.000000 moveto
0 14 rlineto
14 0 rlineto
0 -14 rlineto
closepath
gsave
0.000000 0.000000 0.000000 setrgbcolor
fill
grestore
stroke
HE10 setfont
590.480310 206.000000 moveto
(OTHER) show
45.000000 20.000000 moveto
45.000000 20.000000 lineto
51.887687 20.000000 lineto
60.392996 20.000000 lineto
68.405247 20.000000 lineto
76.058409 20.000000 lineto
84.222180 20.000000 lineto
92.202315 20.000000 lineto
99.853367 20.000000 lineto
107.884661 20.000000 lineto
115.435094 20.000000 lineto
123.218933 20.000000 lineto
131.351772 20.000000 lineto
139.895682 20.000000 lineto
147.883640 20.000000 lineto
156.295536 20.000000 lineto
164.404906 20.000000 lineto
172.155342 20.000000 lineto
180.614073 20.000000 lineto
189.452017 20.000000 lineto
196.693542 20.000000 lineto
204.692926 20.000000 lineto
213.030863 20.000000 lineto
220.869617 20.000000 lineto
228.785624 20.000000 lineto
236.831020 20.000000 lineto
244.714808 20.000000 lineto
252.832721 20.000000 lineto
261.121558 20.000000 lineto
268.980797 20.000000 lineto
276.807198 20.000000 lineto
285.180133 20.000000 lineto
293.063973 20.000000 lineto
300.732370 20.000000 lineto
308.538390 20.000000 lineto
316.381519 20.000000 lineto
324.522593 20.000000 lineto
332.621978 20.000000 lineto
340.742517 20.000000 lineto
349.393582 20.000000 lineto
357.290494 20.000000 lineto
365.251535 20.000000 lineto
373.137588 20.000000 lineto
380.967077 20.000000 lineto
389.035685 20.000000 lineto
396.869756 20.000000 lineto
404.767337 20.000000 lineto
412.735532 20.000000 lineto
420.614482 20.000000 lineto
428.655400 20.000000 lineto
437.223500 20.000000 lineto
445.487324 20.000000 lineto
453.666329 20.000000 lineto
461.600658 20.000000 lineto
469.103433 20.000000 lineto
476.915115 20.000000 lineto
485.042035 20.000000 lineto
493.123407 20.000000 lineto
501.052744 20.000000 lineto
509.468911 20.000000 lineto
517.222023 20.000000 lineto
525.821673 20.000000 lineto
534.205313 20.000000 lineto
542.153538 20.000000 lineto
550.465947 20.000000 lineto
558.372330 20.000000 lineto
566.480310 20.000000 lineto
566.480310 345.724471 lineto
566.480310 345.724471 lineto
558.372330 361.156708 lineto
550.465947 360.249543 lineto
542.153538 345.703617 lineto
534.205313 345.182257 lineto
525.821673 345.130121 lineto
517.222023 345.150976 lineto
509.468911 361.740631 lineto
501.052744 362.116009 lineto
493.123407 361.740631 lineto
485.042035 345.599345 lineto
476.915115 361.302689 lineto
469.103433 361.427815 lineto
461.600658 346.256258 lineto
453.666329 345.474219 lineto
445.487324 365.609117 lineto
437.223500 361.469524 lineto
428.655400 364.858359 lineto
420.614482 345.870452 lineto
412.735532 346.058141 lineto
404.767337 360.604067 lineto
396.869756 345.557636 lineto
389.035685 364.118029 lineto
380.967077 345.787034 lineto
373.137588 365.796806 lineto
365.251535 359.384086 lineto
357.290494 354.837833 lineto
349.393582 365.598690 lineto
340.742517 345.599345 lineto
332.621978 345.755753 lineto
324.522593 354.587580 lineto
316.381519 346.652491 lineto
308.538390 362.939757 lineto
300.732370 365.536127 lineto
293.063973 361.865757 lineto
285.180133 362.835485 lineto
276.807198 360.750048 lineto
268.980797 346.099850 lineto
261.121558 346.652491 lineto
252.832721 345.828743 lineto
244.714808 345.515927 lineto
236.831020 361.417388 lineto
228.785624 362.084728 lineto
220.869617 345.453364 lineto
213.030863 354.587580 lineto
204.692926 365.358864 lineto
196.693542 354.587580 lineto
189.452017 346.058141 lineto
180.614073 345.828743 lineto
172.155342 345.953869 lineto
164.404906 354.900396 lineto
156.295536 365.327583 lineto
147.883640 360.864747 lineto
139.895682 355.015095 lineto
131.351772 347.705637 lineto
123.218933 361.250553 lineto
115.435094 361.187990 lineto
107.884661 362.960611 lineto
99.853367 361.302689 lineto
92.202315 345.661908 lineto
84.222180 363.335990 lineto
76.058409 345.807889 lineto
68.405247 347.768200 lineto
60.392996 365.619544 lineto
51.887687 402.000000 lineto
45.000000 20.000000 lineto
closepath
gsave
0.000000 0.000000 0.000000 setrgbcolor
fill
grestore
stroke
showpage
